/* XPM */
static char * bandaidsm_xpm[] = {
"16 16 65 1",
" 	c None",
".	c #B09776",
"+	c #D2B48C",
"@	c #B69C7A",
"#	c #B29877",
"$	c #C1A681",
"%	c #D0B28B",
"&	c #BDA27D",
"*	c #BCA17D",
"=	c #B59B79",
"-	c #D0B38B",
";	c #C0A580",
">	c #C2A681",
",	c #C6AA84",
"'	c #BDA27E",
")	c #CCAF88",
"!	c #C7AA84",
"~	c #CDAF88",
"{	c #CBAE87",
"]	c #B19776",
"^	c #A28B6D",
"/	c #A68F6F",
"(	c #AB9372",
"_	c #C0A47F",
":	c #C7AB85",
"<	c #958065",
"[	c #AE9575",
"}	c #D1B38B",
"|	c #C4A883",
"1	c #CEB189",
"2	c #B89E7B",
"3	c #B99F7C",
"4	c #BDA17E",
"5	c #A48D6E",
"6	c #9A8468",
"7	c #BEA37F",
"8	c #C5A983",
"9	c #C1A581",
"0	c #AC9474",
"a	c #A89071",
"b	c #A89070",
"c	c #A68F70",
"d	c #9E886A",
"e	c #AD9474",
"f	c #BCA07C",
"g	c #AB9373",
"h	c #AF9675",
"i	c #CFB28A",
"j	c #D0B28A",
"k	c #C5A984",
"l	c #9B8568",
"m	c #AE9675",
"n	c #AE9573",
"o	c #B39A77",
"p	c #CEB089",
"q	c #BEA27E",
"r	c #B49A78",
"s	c #C8AC85",
"t	c #CDB089",
"u	c #BBA07C",
"v	c #A79070",
"w	c #C0A480",
"x	c #B29876",
"y	c #B99F7B",
"z	c #B29977",
"                ",
"          .+@   ",
"         #$%&*  ",
"        =-;>,%  ",
"       =')!~{]  ",
"      ^/(@_:!<  ",
"     [}|12345   ",
"    67889,0a    ",
"   b}c{1)}d     ",
"  ef_,g3>h      ",
"  ij{:>kl       ",
" mn7opq'        ",
" rst!u7         ",
" vw>xy          ",
"  az0           ",
"                "};
