/* XPM */
static char * checkout_xpm[] = {
"24 24 17 1",
" 	c None",
".	c #0D0C09",
"+	c #415A33",
"@	c #59754D",
"#	c #619754",
"$	c #A83527",
"%	c #73AB63",
"&	c #813128",
"*	c #A95446",
"=	c #70C962",
"-	c #353D26",
";	c #B87A74",
">	c #8FDA84",
",	c #8B654F",
"'	c #562A19",
")	c #AAE6A0",
"!	c #C2927C",
"                        ",
"                        ",
"                        ",
"            %+          ",
"          ,;>=+         ",
"          ;+%>>-        ",
"         ,*+=>>>@       ",
"         ;&+>>>>=+      ",
"        ;&. %>>>)>-     ",
"       ;$+- %>>>)))+    ",
"  *#%=!*-@=>>>>)>))>@   ",
"  $@%%$'+===>>>>))))>.  ",
"  &$,*'+===>>>>)>))>-.  ",
"  ,$$&-#%====>>)))=-.   ",
"   ;$&.-+-+#=>>>)>-.    ",
"   .'.....+=>>>>#-.     ",
"     .    #>=>>#-.      ",
"          +=>>%..       ",
"           +%+..        ",
"            -..         ",
"                        ",
"                        ",
"                        ",
"                        "};
