/* XPM */
static char * questionsm_xpm[] = {
"16 16 60 1",
" 	c None",
".	c #921010",
"+	c #BD1515",
"@	c #C11616",
"#	c #AE1414",
"$	c #E81B1B",
"%	c #E51B1B",
"&	c #700C0C",
"*	c #9B1212",
"=	c #E91E1E",
"-	c #E92020",
";	c #A41818",
">	c #E32626",
",	c #EA2929",
"'	c #881717",
")	c #000000",
"!	c #971E1E",
"~	c #EB3232",
"{	c #EB3434",
"]	c #360C0C",
"^	c #9E2525",
"/	c #BF2F2F",
"(	c #100303",
"_	c #ED4444",
":	c #ED4646",
"<	c #571A1A",
"[	c #8B3232",
"}	c #EF5757",
"|	c #EF5959",
"1	c #381414",
"2	c #E26262",
"3	c #F06969",
"4	c #C35656",
"5	c #020000",
"6	c #C86464",
"7	c #F27A7A",
"8	c #D86E6E",
"9	c #231111",
"0	c #884E4E",
"a	c #EA8484",
"b	c #F28A8A",
"c	c #A05B5B",
"d	c #160C0C",
"e	c #F29898",
"f	c #875353",
"g	c #281818",
"h	c #966868",
"i	c #D19292",
"j	c #775A5A",
"k	c #C5B0B0",
"l	c #FBE2E2",
"m	c #E6D0D0",
"n	c #060606",
"o	c #FDF2F2",
"p	c #FDF4F4",
"q	c #F8F1F1",
"r	c #0D0D0D",
"s	c #B3B3B3",
"t	c #EBEBEB",
"u	c #686868",
"      .+@#      ",
"     $%&*=-;    ",
"    >,') !~{]   ",
"    ^/()  _:<)  ",
"         [}|1)  ",
"         2345)  ",
"        6789)   ",
"      0abcd)    ",
"      efg))     ",
"     hi))       ",
"      j)        ",
"                ",
"    klmn        ",
"    opqr        ",
"    stu)        ",
"      )         "};
