/* XPM */
static char * redlightsm_xpm[] = {
"16 16 33 1",
" 	c None",
".	c #070708",
"+	c #929294",
"@	c #454446",
"#	c #840C0C",
"$	c #BC0404",
"%	c #2A2928",
"&	c #D22624",
"*	c #8E2D2C",
"=	c #4E2624",
"-	c #ED1615",
";	c #3E0204",
">	c #393738",
",	c #C44C4C",
"'	c #A50405",
")	c #747474",
"!	c #191918",
"~	c #824244",
"{	c #FEFEFC",
"]	c #EB2829",
"^	c #5C3C3C",
"/	c #360404",
"(	c #5E0607",
"_	c #E50D0C",
":	c #EE5254",
"<	c #BE3638",
"[	c #604444",
"}	c #3C292A",
"|	c #6C2828",
"1	c #8F3939",
"2	c #525254",
"3	c #CE0706",
"4	c #6E0604",
"       )        ",
"    ~,<*[2      ",
"   :]----1@%    ",
"  &-]-----^@@   ",
" 1-]]----_$>>!  ",
" ,_]-----_'|@%  ",
")<-]-----_'#@%. ",
"+1------_3'#>>! ",
"2[---_-_3'##>>! ",
" @*--_3$'#4(%>. ",
" @@*3$''(/;}%!. ",
"  >@|#4(;/%>%.  ",
"   >>>==%}>!.   ",
"    !%>>@>!.    ",
"     !!%!!.     ",
"                "};
